<?xml version="1.0" standalone="no"?>
<!DOCTYPE svg PUBLIC "-//W3C//DTD SVG 20010904//EN"
 "http://www.w3.org/TR/2001/REC-SVG-20010904/DTD/svg10.dtd">
<svg version="1.0" xmlns="http://www.w3.org/2000/svg"
 width="260.000000pt" height="260.000000pt" viewBox="0 0 260.000000 260.000000"
 preserveAspectRatio="xMidYMid meet">
<metadata>
Created by potrace 1.11, written by Peter Selinger 2001-2013
</metadata>
<g transform="translate(0.000000,260.000000) scale(0.100000,-0.100000)"
fill="#000000" stroke="none">
<path d="M0 2350 l0 -250 155 0 c144 0 155 -1 165 -20 8 -14 8 -26 0 -40 -10
-19 -21 -20 -165 -20 l-155 0 0 -205 0 -205 200 0 200 0 6 -25 c13 -51 -1 -55
-212 -55 l-194 0 0 -127 0 -128 282 0 283 0 3 -23 c7 -51 0 -52 -282 -52 -190
0 -265 3 -274 12 -9 9 -12 -17 -12 -120 l0 -132 40 0 40 0 0 -40 0 -40 -40 0
-40 0 0 -440 0 -440 1300 0 1300 0 0 158 0 157 -77 0 -78 0 0 35 0 35 78 0 77
0 0 163 0 162 -186 0 c-109 0 -193 4 -205 10 -25 14 -25 56 0 70 12 6 96 10
205 10 l186 0 0 80 0 79 -157 3 -158 3 0 35 0 35 158 3 157 3 0 79 0 80 -234
0 c-251 0 -261 2 -254 52 l3 23 243 3 242 2 0 88 0 87 -282 0 -283 0 0 35 0
35 283 0 282 0 0 83 0 82 -234 0 c-251 0 -261 2 -254 52 l3 23 243 3 242 2 0
88 0 87 -161 -3 -160 -3 3 38 3 38 158 0 157 0 0 293 0 292 -1300 0 -1300 0 0
-250z m1469 -114 c152 -33 369 -125 391 -165 17 -32 12 -89 -10 -111 -38 -38
-64 -36 -168 13 -253 117 -478 143 -658 76 -83 -31 -176 -124 -198 -199 -22
-75 -20 -136 8 -196 49 -105 149 -160 466 -259 351 -109 436 -149 537 -253
157 -161 149 -453 -18 -636 -209 -229 -601 -269 -992 -101 -229 98 -301 174
-234 249 38 44 73 43 152 -5 222 -135 454 -195 648 -169 235 33 369 159 370
350 1 65 -3 83 -29 130 -34 62 -98 116 -187 159 -34 16 -174 64 -312 106 -295
91 -393 135 -481 218 -93 86 -118 144 -122 277 -3 88 0 116 18 169 27 82 78
158 143 216 59 54 189 119 267 134 30 6 64 13 75 15 40 10 262 -3 334 -18z
m-904 -176 l0 -35 -75 0 c-71 0 -75 1 -78 23 -7 47 2 53 80 50 l73 -3 0 -35z
m1623 -83 l3 -38 -78 3 c-73 3 -78 4 -81 26 -7 47 2 53 80 50 l73 -3 3 -38z
m-1874 -133 c40 -39 5 -74 -73 -74 -61 0 -81 11 -81 45 0 12 5 26 12 33 18 18
123 15 142 -4z m411 -924 l0 -35 -280 0 -280 0 -3 23 c-8 51 -1 53 292 50
l271 -3 0 -35z m244 22 c6 -10 7 -29 4 -41 -5 -20 -10 -22 -82 -19 -71 3 -76
5 -79 26 -6 39 14 52 84 52 51 0 65 -4 73 -18z m-731 -349 l-3 -38 -75 0 c-71
0 -75 1 -78 23 -7 46 2 52 83 52 l76 0 -3 -37z m2032 -63 c8 -14 8 -26 0 -40
-9 -17 -21 -20 -80 -20 -66 0 -70 1 -76 25 -12 47 -1 55 75 55 60 0 72 -3 81
-20z m-1784 -85 c12 -48 1 -55 -81 -55 l-75 0 0 33 c0 19 3 37 7 40 3 4 37 7
74 7 65 0 69 -1 75 -25z"/>
</g>
</svg>
